Chapter 1 Preparing Textual Data | Text Analysis with R
…
(For spell checks take a look at https://CRAN.R-project.org/package=spelling or https://CRAN.R-project.org/package=hunspell)

1.3 Tokenize, lowercase

A very common part of data cleaning involves tokenization. While our data is already “tidy” insofar as each row is a single observation, a single text with metdata, the tidytext approach goes a step further to make each word it’s own observation with metadata. We could write our own function to do this using a tokenizer, but tidytext provides a handy utility function just for this purpose.

tidy_sotu <- sotu_whole %>%
  unnest_tokens(word, text)

tidy_sotu

#> # A tibble: 1,965,212 x 7
#>    president     year years_active party   sotu_type doc_id        word    
#>    <chr>        <int> <chr>        <chr>   <chr>     <chr>         <chr>   
#>  1 Abraham Lin…  1861 1861-1865    Republ… written   abraham-linc… fellow  
#>  2 Abraham Lin…  1861 1861-1865    Republ… written   abraham-linc… citizens
#>  3 Abraham Lin…  1861 1861-1865    Republ… written   abraham-linc… of      
#>  4 Abraham Lin…  1861 1861-1865    Republ… written   abraham-linc… the     
#>  5 Abraham Lin…  1861 1861-1865    Republ… written   abraham-linc… senate  
#>  6 Abraham Lin…  1861 1861-1865    Republ… written   abraham-linc… and     
#>  7 Abraham Lin…  1861 1861-1865    Republ… written   abraham-linc… house   
#>  8 Abraham Lin…  1861 1861-1865    Republ… written   abraham-linc… of      
#>  9 Abraham Lin…  1861 1861-1865    Republ… written   abraham-linc… represe…
#> 10 Abraham Lin…  1861 1861-1865    Republ… written   abraham-linc… in      
#> # … with 1,965,202 more rows

Before we move on, we should note that the unnest_tokens function didn’t just tokenize our texts at the word level. It also lowercased each word, and it could do quite a bit more. For instance, we could tokenize the text at the level of ngrams or sentences, if those are the best units of analysis for our work. We could also leave punctuation, which has been removed by default. Depending on what you need to do for analysis, you could do these operations during this step, or write custom functions and do it before you unnest tokens.

# Word tokenization with punctuation
tidy_sotu_w_punct <- sotu_whole %>%
  unnest_tokens(word, text, strip_punct = FALSE)

tidy_sotu_w_punct

#> # A tibble: 2,157,777 x 7
#>    president     year years_active party   sotu_type doc_id        word    
#>    <chr>        <int> <chr>        <chr>   <chr>     <chr>         <chr>   
#>  1 Abraham Lin…  1861 1861-1865    Republ… written   abraham-linc… fellow  
#>  2 Abraham Lin…  1861 1861-1865    Republ… written   abraham-linc… -       
#>  3 Abraham Lin…  1861 1861-1865    Republ… written   abraham-linc… citizens
#>  4 Abraham Lin…  1861 1861-1865    Republ… written   abraham-linc… of      
#>  5 Abraham Lin…  1861 1861-1865    Republ… written   abraham-linc… the     
#>  6 Abraham Lin…  1861 1861-1865    Republ… written   abraham-linc… senate  
#>  7 Abraham Lin…  1861 1861-1865    Republ… written   abraham-linc… and     
#>  8 Abraham Lin…  1861 1861-1865    Republ… written   abraham-linc… house   
#>  9 Abraham Lin…  1861 1861-1865    Republ… written   abraham-linc… of      
#> 10 Abraham Lin…  1861 1861-1865    Republ… written   abraham-linc… represe…
#> # … with 2,157,767 more rows

# Sentence tokenization
tidy_sotu_sentences <- sotu_whole %>%
  unnest_tokens(sentence, text, token = "sentences", to_lower = FALSE)

tidy_sotu_sentences

#> # A tibble: 69,158 x 7
#>    president   year years_active party  sotu_type doc_id   sentence        
#>    <chr>      <int> <chr>        <chr>  <chr>     <chr>    <chr>           
#>  1 Abraham L…  1861 1861-1865    Repub… written   abraham… Fellow-Citizens…
#>  2 Abraham L…  1861 1861-1865    Repub… written   abraham… You will not be…
#>  3 Abraham L…  1861 1861-1865    Repub… written   abraham… A disloyal port…
#>  4 Abraham L…  1861 1861-1865    Repub… written   abraham… A nation which …
#>  5 Abraham L…  1861 1861-1865    Repub… written   abraham… Nations thus te…
#>  6 Abraham L…  1861 1861-1865    Repub… written   abraham… The disloyal ci…
#>  7 Abraham L…  1861 1861-1865    Repub… written   abraham… If it were just…
#>  8 Abraham L…  1861 1861-1865    Repub… written   abraham… If we could dar…
#>  9 Abraham L…  1861 1861-1865    Repub… written   abraham… The principal l…
#> 10 Abraham L…  1861 1861-1865    Repub… written   abraham… Those nations, …
#> # … with 69,148 more rows

# N-gram tokenization
tidy_sotu_trigram <- sotu_whole %>%
  unnest_tokens(trigram, text, token = "ngrams", n = 3)

tidy_sotu_trigram

#> # A tibble: 1,964,740 x 7
#>    president    year years_active party   sotu_type doc_id      trigram    
#>    <chr>       <int> <chr>        <chr>   <chr>     <chr>       <chr>      
#>  1 Abraham Li…  1861 1861-1865    Republ… written   abraham-li… fellow cit…
#>  2 Abraham Li…  1861 1861-1865    Republ… written   abraham-li… citizens o…
#>  3 Abraham Li…  1861 1861-1865    Republ… written   abraham-li… of the sen…
#>  4 Abraham Li…  1861 1861-1865    Republ… written   abraham-li… the senate…
#>  5 Abraham Li…  1861 1861-1865    Republ… written   abraham-li… senate and…
#>  6 Abraham Li…  1861 1861-1865    Republ… written   abraham-li… and house …
#>  7 Abraham Li…  1861 1861-1865    Republ… written   abraham-li… house of r…
#>  8 Abraham Li…  1861 1861-1865    Republ… written   abraham-li… of represe…
#>  9 Abraham Li…  1861 1861-1865    Republ… written   abraham-li… representa…
#> 10 Abraham Li…  1861 1861-1865    Republ… written   abraham-li… in the mid…
#> # … with 1,964,730 more rows

1.4 Stopwords

Another common type of cleaning in text analysis is to remove stopwords, or common words that theoretically provide less information about the content of a text. Depending on the type of analysis you’re doing, you might leave these words in or use a highly curated list of stopwords. For now, as we move toward looking at words in documents based on frequency, we will remove some standard stopwords using a tidytext approach.

First, let’s look at the stopwords that tidytext gives us to get a sense of what they are.

data(stop_words)
head(stop_words, n = 60)

#> # A tibble: 60 x 2
#>    word        lexicon
#>    <chr>       <chr>  
#>  1 a           SMART  
#>  2 a's         SMART  
#>  3 able        SMART  
#>  4 about       SMART  
#>  5 above       SMART  
#>  6 according   SMART  
#>  7 accordingly SMART  
#>  8 across      SMART  
#>  9 actually    SMART  
#> 10 after       SMART  
#> # … with 50 more rows

You can see that we now have one word per row with associated metadata. We can now remove stopwords using an anti-join.

tidy_sotu_words <- tidy_sotu %>% 
  anti_join(stop_words)

tidy_sotu_words

#> # A tibble: 778,161 x 7
#>    president     year years_active party   sotu_type doc_id        word    
#>    <chr>        <int> <chr>        <chr>   <chr>     <chr>         <chr>   
#>  1 Abraham Lin…  1861 1861-1865    Republ… written   abraham-linc… fellow  
#>  2 Abraham Lin…  1861 1861-1865    Republ… written   abraham-linc… citizens
#>  3 Abraham Lin…  1861 1861-1865    Republ… written   abraham-linc… senate  
#>  4 Abraham Lin…  1861 1861-1865    Republ… written   abraham-linc… house   
#>  5 Abraham Lin…  1861 1861-1865    Republ… written   abraham-linc… represe…
#>  6 Abraham Lin…  1861 1861-1865    Republ… written   abraham-linc… midst   
#>  7 Abraham Lin…  1861 1861-1865    Republ… written   abraham-linc… unprece…
#>  8 Abraham Lin…  1861 1861-1865    Republ… written   abraham-linc… politic…
#>  9 Abraham Lin…  1861 1861-1865    Republ… written   abraham-linc… troubles
#> 10 Abraham Lin…  1861 1861-1865    Republ… written   abraham-linc… gratitu…
#> # … with 778,151 more rows
…
